%YAML 1.1
%TAG !u! tag:unity3d.com,2011:
--- !u!74 &7400000
AnimationClip:
  m_ObjectHideFlags: 0
  m_CorrespondingSourceObject: {fileID: 0}
  m_PrefabInstance: {fileID: 0}
  m_PrefabAsset: {fileID: 0}
  m_Name: Moneda 2
  serializedVersion: 6
  m_Legacy: 0
  m_Compressed: 0
  m_UseHighQualityCurve: 1
  m_RotationCurves: []
  m_CompressedRotationCurves: []
  m_EulerCurves: []
  m_PositionCurves: []
  m_ScaleCurves: []
  m_FloatCurves: []
  m_PPtrCurves:
  - curve:
    - time: 0
      value: {fileID: 21300000, guid: 97f3a54f0e3a3a84da84f58ea25bbdaa, type: 3}
    - time: 0.083333336
      value: {fileID: 21300000, guid: b0953d9a246de7e48965c2a8aa65a999, type: 3}
    - time: 0.16666667
      value: {fileID: 21300000, guid: 79a742f6df23ec94ba796ae3daadda79, type: 3}
    - time: 0.25
      value: {fileID: 21300000, guid: 84bdc02a70fe3cf41bd9f1c86e39b297, type: 3}
    - time: 0.33333334
      value: {fileID: 21300000, guid: 94794d4a7f02d7040920c25811a0510f, type: 3}
    - time: 0.41666666
      value: {fileID: 21300000, guid: 8d4327daaaa3e5b46b54c525749b370b, type: 3}
    - time: 0.5
      value: {fileID: 21300000, guid: f3699a002505f4649be3300e4f505f19, type: 3}
    - time: 0.5833333
      value: {fileID: 21300000, guid: c583983210a89ee4fa32c308b8e30565, type: 3}
    - time: 0.6666667
      value: {fileID: 21300000, guid: f3475f744a2927d4497bbbaf3c4a376e, type: 3}
    - time: 0.75
      value: {fileID: 21300000, guid: 0c0bc64ec7abe354fa792ab777a1d6d5, type: 3}
    - time: 0.8333333
      value: {fileID: 21300000, guid: b7a688b0c43fcae47befa7d31d9ff0d8, type: 3}
    - time: 0.9166667
      value: {fileID: 21300000, guid: c48aec73a70d85f4298664f66da8fa69, type: 3}
    - time: 1
      value: {fileID: 21300000, guid: 99dfa54de8061904ebd1c7bf39828889, type: 3}
    - time: 1.0833334
      value: {fileID: 21300000, guid: 6ac143a04254fa9418f631021db216c6, type: 3}
    - time: 1.1666666
      value: {fileID: 21300000, guid: 2b8dd41544b86ab43abb675b51121fa4, type: 3}
    - time: 1.25
      value: {fileID: 21300000, guid: dc555ac34f49c264d98e6cbeeb87bc58, type: 3}
    - time: 1.3333334
      value: {fileID: 21300000, guid: 319ded2c0129b674d982eb96d2f6cdc9, type: 3}
    - time: 1.4166666
      value: {fileID: 21300000, guid: 5f09fad2c774d5b498513b5556ae9dc6, type: 3}
    - time: 1.5
      value: {fileID: 21300000, guid: 54663dd0780631f43be2be7aa39740aa, type: 3}
    - time: 1.5833334
      value: {fileID: 21300000, guid: 8bd6ea53263db6b489b9d5809bf83789, type: 3}
    - time: 1.6666666
      value: {fileID: 21300000, guid: 7649a74d77feaaa429f72c35082f516b, type: 3}
    - time: 1.75
      value: {fileID: 21300000, guid: 9b5a650b0f9fa6d4383357d501a09625, type: 3}
    - time: 1.8333334
      value: {fileID: 21300000, guid: 97d0fd388a7a8d74c9d709f16a177a4f, type: 3}
    - time: 1.9166666
      value: {fileID: 21300000, guid: bdd6701713e086d488c4c6d3780dd8f6, type: 3}
    - time: 2
      value: {fileID: 21300000, guid: fcb4747e2a2dd644b821f2c87a7cf625, type: 3}
    - time: 2.0833333
      value: {fileID: 21300000, guid: 0795c7bd19c7f8942852ad1ea5db899e, type: 3}
    - time: 2.1666667
      value: {fileID: 21300000, guid: d6aa0b9f99a461342908edb455e8b3e7, type: 3}
    - time: 2.25
      value: {fileID: 21300000, guid: a806c55226cdfde4896ede9421270ab7, type: 3}
    - time: 2.3333333
      value: {fileID: 21300000, guid: 9843796bb6ce6d848991ae03db6be2c5, type: 3}
    - time: 2.4166667
      value: {fileID: 21300000, guid: 988c4de059834ef47943c63f652b5d01, type: 3}
    attribute: m_Sprite
    path: 
    classID: 212
    script: {fileID: 0}
  m_SampleRate: 12
  m_WrapMode: 0
  m_Bounds:
    m_Center: {x: 0, y: 0, z: 0}
    m_Extent: {x: 0, y: 0, z: 0}
  m_ClipBindingConstant:
    genericBindings:
    - serializedVersion: 2
      path: 0
      attribute: 0
      script: {fileID: 0}
      typeID: 212
      customType: 23
      isPPtrCurve: 1
    pptrCurveMapping:
    - {fileID: 21300000, guid: 97f3a54f0e3a3a84da84f58ea25bbdaa, type: 3}
    - {fileID: 21300000, guid: b0953d9a246de7e48965c2a8aa65a999, type: 3}
    - {fileID: 21300000, guid: 79a742f6df23ec94ba796ae3daadda79, type: 3}
    - {fileID: 21300000, guid: 84bdc02a70fe3cf41bd9f1c86e39b297, type: 3}
    - {fileID: 21300000, guid: 94794d4a7f02d7040920c25811a0510f, type: 3}
    - {fileID: 21300000, guid: 8d4327daaaa3e5b46b54c525749b370b, type: 3}
    - {fileID: 21300000, guid: f3699a002505f4649be3300e4f505f19, type: 3}
    - {fileID: 21300000, guid: c583983210a89ee4fa32c308b8e30565, type: 3}
    - {fileID: 21300000, guid: f3475f744a2927d4497bbbaf3c4a376e, type: 3}
    - {fileID: 21300000, guid: 0c0bc64ec7abe354fa792ab777a1d6d5, type: 3}
    - {fileID: 21300000, guid: b7a688b0c43fcae47befa7d31d9ff0d8, type: 3}
    - {fileID: 21300000, guid: c48aec73a70d85f4298664f66da8fa69, type: 3}
    - {fileID: 21300000, guid: 99dfa54de8061904ebd1c7bf39828889, type: 3}
    - {fileID: 21300000, guid: 6ac143a04254fa9418f631021db216c6, type: 3}
    - {fileID: 21300000, guid: 2b8dd41544b86ab43abb675b51121fa4, type: 3}
    - {fileID: 21300000, guid: dc555ac34f49c264d98e6cbeeb87bc58, type: 3}
    - {fileID: 21300000, guid: 319ded2c0129b674d982eb96d2f6cdc9, type: 3}
    - {fileID: 21300000, guid: 5f09fad2c774d5b498513b5556ae9dc6, type: 3}
    - {fileID: 21300000, guid: 54663dd0780631f43be2be7aa39740aa, type: 3}
    - {fileID: 21300000, guid: 8bd6ea53263db6b489b9d5809bf83789, type: 3}
    - {fileID: 21300000, guid: 7649a74d77feaaa429f72c35082f516b, type: 3}
    - {fileID: 21300000, guid: 9b5a650b0f9fa6d4383357d501a09625, type: 3}
    - {fileID: 21300000, guid: 97d0fd388a7a8d74c9d709f16a177a4f, type: 3}
    - {fileID: 21300000, guid: bdd6701713e086d488c4c6d3780dd8f6, type: 3}
    - {fileID: 21300000, guid: fcb4747e2a2dd644b821f2c87a7cf625, type: 3}
    - {fileID: 21300000, guid: 0795c7bd19c7f8942852ad1ea5db899e, type: 3}
    - {fileID: 21300000, guid: d6aa0b9f99a461342908edb455e8b3e7, type: 3}
    - {fileID: 21300000, guid: a806c55226cdfde4896ede9421270ab7, type: 3}
    - {fileID: 21300000, guid: 9843796bb6ce6d848991ae03db6be2c5, type: 3}
    - {fileID: 21300000, guid: 988c4de059834ef47943c63f652b5d01, type: 3}
  m_AnimationClipSettings:
    serializedVersion: 2
    m_AdditiveReferencePoseClip: {fileID: 0}
    m_AdditiveReferencePoseTime: 0
    m_StartTime: 0
    m_StopTime: 2.5
    m_OrientationOffsetY: 0
    m_Level: 0
    m_CycleOffset: 0
    m_HasAdditiveReferencePose: 0
    m_LoopTime: 1
    m_LoopBlend: 0
    m_LoopBlendOrientation: 0
    m_LoopBlendPositionY: 0
    m_LoopBlendPositionXZ: 0
    m_KeepOriginalOrientation: 0
    m_KeepOriginalPositionY: 1
    m_KeepOriginalPositionXZ: 0
    m_HeightFromFeet: 0
    m_Mirror: 0
  m_EditorCurves: []
  m_EulerEditorCurves: []
  m_HasGenericRootTransform: 0
  m_HasMotionFloatCurves: 0
  m_Events: []
